{
  "$schema": "https://developer.microsoft.com/json-schemas/rush/v5/rush.schema.json",
  "rushVersion": "5.35.2",
  "npmVersion": "6.14.9",
  "nodeSupportedVersionRange": ">=14.0.0 <15.0.0",
  "gitPolicy": {},
  "repository": {
    "url": "https://gitlab.com/nguerreroc-nodejs/monorepo-using-rush.git"
  },
  "ensureConsistentVersions": true,
  "eventHooks": {
    "preRushInstall": [],
    "postRushInstall": [],
    "preRushBuild": [],
    "postRushBuild": []
  },
  "variants": [],
  "projects": [
    {
      "packageName": "@nguerreroc-nodejs/core-lib",
      "projectFolder": "projects/core-lib",
      "reviewCategory": "library",
      "shouldPublish": true
    },
    {
      "packageName": "app",
      "projectFolder": "projects/app",
      "reviewCategory": "application",
      "shouldPublish": false
    }
  ]
}