{
  "name": "rush-common",
  "version": "0.0.0",
  "lockfileVersion": 1,
  "requires": true,
  "dependencies": {
    "@rush-temp/app": {
      "version": "file:projects/app.tgz",
      "integrity": "sha512-UUTQN0WGEcVSFNM2MuA7sWKlFmLdLkB8IDf9frFu31WP/SDsH+pLiKMdbZA2XxOchJB2sYKvwK4FIzU9cT2zVw=="
    },
    "@rush-temp/core-lib": {
      "version": "file:projects/core-lib.tgz",
      "integrity": "sha512-5xByv99q6XYNSS+dGq4UgbuKw8RxWdX26Z2RJ1+k8/YMKV7bpOI704dVpNKjEk8I7vXTvN7bMAbyboQj01uq2w=="
    }
  }
}
